{
  "project_info": {
    "project_number": "116611742868",
    "project_id": "farmacare-rr",
    "storage_bucket": "farmacare-rr.appspot.com"
  },
  "client": [
    {
      "client_info": {
        "mobilesdk_app_id": "1:116611742868:android:7f32b8d0ab1ba521558881",
        "android_client_info": {
          "package_name": "com.synapse.farmacare"
        }
      },
      "oauth_client": [
        {
          "client_id": "116611742868-0e5vpg85o2bs78nsleeb9573gd7o23bi.apps.googleusercontent.com",
          "client_type": 3
        }
      ],
      "api_key": [
        {
          "current_key": "AIzaSyDZitlGKI1Lq27hvtSGXRwOm0zEEGOflV8"
        }
      ],
      "services": {
        "appinvite_service": {
          "other_platform_oauth_client": [
            {
              "client_id": "116611742868-0e5vpg85o2bs78nsleeb9573gd7o23bi.apps.googleusercontent.com",
              "client_type": 3
            }
          ]
        }
      }
    }
  ],
  "configuration_version": "1"
}